Tarea_1_Historia_de_Vida
…
Number_Ind

## # A tibble: 38 × 3
##    Species  Year     N
##    <chr>   <dbl> <dbl>
##  1 Dl       1982    36
##  2 Dl       1983    18
##  3 Dl       1984    71
##  4 Dl       1985    23
##  5 Dl       1986    29
##  6 Dl       1987    21
##  7 Dl       1988     5
##  8 Dl       1989    72
##  9 Dl       1990    74
## 10 Dl       1991    39
## # … with 28 more rows
…
